%YAML 1.1
%TAG !u! tag:unity3d.com,2011:
--- !u!21 &2100000
Material:
  serializedVersion: 6
  m_ObjectHideFlags: 0
  m_PrefabParentObject: {fileID: 0}
  m_PrefabInternal: {fileID: 0}
  m_Name: lamp_10_mat
  m_Shader: {fileID: 46, guid: 0000000000000000f000000000000000, type: 0}
  m_ShaderKeywords: _METALLICGLOSSMAP _NORMALMAP
  m_LightmapFlags: 5
  m_CustomRenderQueue: -1
  stringTagMap: {}
  m_SavedProperties:
    serializedVersion: 2
    m_TexEnvs:
    - first:
        name: _BumpMap
      second:
        m_Texture: {fileID: 2800000, guid: 9d2f1b7db79fcc04189f9116fd4a9008, type: 3}
        m_Scale: {x: 1, y: 1}
        m_Offset: {x: 0, y: 0}
    - first:
        name: _DetailAlbedoMap
      second:
        m_Texture: {fileID: 0}
        m_Scale: {x: 1, y: 1}
        m_Offset: {x: 0, y: 0}
    - first:
        name: _DetailMask
      second:
        m_Texture: {fileID: 0}
        m_Scale: {x: 1, y: 1}
        m_Offset: {x: 0, y: 0}
    - first:
        name: _DetailNormalMap
      second:
        m_Texture: {fileID: 0}
        m_Scale: {x: 1, y: 1}
        m_Offset: {x: 0, y: 0}
    - first:
        name: _EmissionMap
      second:
        m_Texture: {fileID: 2800000, guid: b51bca48fa962384db11e8eb1cbf4864, type: 3}
        m_Scale: {x: 1, y: 1}
        m_Offset: {x: 0, y: 0}
    - first:
        name: _MainTex
      second:
        m_Texture: {fileID: 2800000, guid: eac07793da850c44bbd8d9e92e85a605, type: 3}
        m_Scale: {x: 1, y: 1}
        m_Offset: {x: 0, y: 0}
    - first:
        name: _MetallicGlossMap
      second:
        m_Texture: {fileID: 2800000, guid: b0a1df3ae57f4e44cb4ce6911055a010, type: 3}
        m_Scale: {x: 1, y: 1}
        m_Offset: {x: 0, y: 0}
    - first:
        name: _OcclusionMap
      second:
        m_Texture: {fileID: 0}
        m_Scale: {x: 1, y: 1}
        m_Offset: {x: 0, y: 0}
    - first:
        name: _ParallaxMap
      second:
        m_Texture: {fileID: 0}
        m_Scale: {x: 1, y: 1}
        m_Offset: {x: 0, y: 0}
    m_Floats:
    - first:
        name: _BumpScale
      second: 1
    - first:
        name: _Cutoff
      second: 0.5
    - first:
        name: _DetailNormalMapScale
      second: 1
    - first:
        name: _DstBlend
      second: 0
    - first:
        name: _EmissionScaleUI
      second: 0
    - first:
        name: _Glossiness
      second: 0.5
    - first:
        name: _Metallic
      second: 0
    - first:
        name: _Mode
      second: 0
    - first:
        name: _OcclusionStrength
      second: 1
    - first:
        name: _Parallax
      second: 0.02
    - first:
        name: _RimPower
      second: 3
    - first:
        name: _Shininess
      second: 0.5001344
    - first:
        name: _SrcBlend
      second: 1
    - first:
        name: _UVSec
      second: 0
    - first:
        name: _ZWrite
      second: 1
    m_Colors:
    - first:
        name: _Color
      second: {r: 1, g: 1, b: 1, a: 1}
    - first:
        name: _EmColor
      second: {r: 0, g: 0, b: 0, a: 1}
    - first:
        name: _EmissionColor
      second: {r: 0, g: 0, b: 0, a: 0}
    - first:
        name: _EmissionColorUI
      second: {r: 1, g: 1, b: 1, a: 1}
    - first:
        name: _RimColor
      second: {r: 0.17841695, g: 0.2334596, b: 0.32352942, a: 0}
    - first:
        name: _SpecColor
      second: {r: 0.029195482, g: 0.44594625, b: 0.7941176, a: 1}
